\boolfalse {citerequest}\boolfalse {citetracker}\boolfalse {pagetracker}\boolfalse {backtracker}\relax 
\defcounter {refsection}{0}\relax 
\select@language {german}
\contentsline {section}{\numberline {1}Theorie}{3}{section.1}
\contentsline {subsection}{\numberline {1.1}Einleitung}{3}{subsection.1.1}
\contentsline {subsection}{\numberline {1.2}Brückenschaltungen und Wichtige Formeln}{3}{subsection.1.2}
\contentsline {section}{\numberline {2}Durchführung}{7}{section.2}
\contentsline {section}{\numberline {3}Auswertung}{7}{section.3}
\contentsline {section}{\numberline {4}Diskussion}{7}{section.4}
